1253,789,1293,829,1
1264.7,804,1304.7,844,0.435
1263,805.67,1303,845.67,0.44944
1261.3,804,1301.3,844,0.45849
1263,802.33,1303,842.33,0.43747
1264.7,800.67,1304.7,840.67,0.44796
1263,795.67,1303,835.67,0.40494
1261.3,794,1301.3,834,0.38186
1249.7,779,1289.7,819,0.53913
1248,777.33,1288,817.33,0.55924
1249.7,779,1289.7,819,0.53762
1248,777.33,1288,817.33,0.51682
1253,779,1293,819,0.43369
1248,777.33,1288,817.33,0.47399
1249.7,779,1289.7,819,0.4756
1248,777.33,1288,817.33,0.45255
1249.7,779,1289.7,819,0.4636
1248,777.33,1288,817.33,0.44559
1249.7,779,1289.7,819,0.45545
1248,777.33,1288,817.33,0.43469
1239.7,772.33,1279.7,812.33,0.48891
1238,777.33,1278,817.33,0.56865
1229.7,772.33,1269.7,812.33,0.49543
1238,780.67,1278,820.67,0.55608
1229.7,772.33,1269.7,812.33,0.49126
1238,780.67,1278,820.67,0.55562
1229.7,772.33,1269.7,812.33,0.50471
1238,780.67,1278,820.67,0.5526
1236.3,779,1276.3,819,0.58471
1241.3,777.33,1281.3,817.33,0.52785
1239.7,775.67,1279.7,815.67,0.53421
1238,774,1278,814,0.55017
1239.7,775.67,1279.7,815.67,0.49434
1238,774,1278,814,0.53527
1239.7,775.67,1279.7,815.67,0.52236
1241.3,777.33,1281.3,817.33,0.51088
1239.7,775.67,1279.7,815.67,0.5329
1241.3,777.33,1281.3,817.33,0.50185
1239.7,775.67,1279.7,815.67,0.49811
1241.3,777.33,1281.3,817.33,0.46566
1239.7,775.67,1279.7,815.67,0.48897
1238,774,1278,814,0.52522
1233,772.33,1273,812.33,0.52938
1234.7,774,1274.7,814,0.53451
1233,772.33,1273,812.33,0.53186
1228,770.67,1268,810.67,0.47569
1226.3,769,1266.3,809,0.43427
1228,770.67,1268,810.67,0.46231
1226.3,769,1266.3,809,0.48033
1228,770.67,1268,810.67,0.46781
1229.7,769,1269.7,809,0.47613
1231.3,770.67,1271.3,810.67,0.4091
1233,769,1273,809,0.47064
1228,767.33,1268,807.33,0.4478
1226.3,765.67,1266.3,805.67,0.35847
1231.3,767.33,1271.3,807.33,0.46339
1226.3,765.67,1266.3,805.67,0.36241
1228,767.33,1268,807.33,0.40751
1226.3,765.67,1266.3,805.67,0.3763
1228,767.33,1268,807.33,0.42173
1229.7,769,1269.7,809,0.45832
1228,764,1268,804,0.46218
1226.3,755.67,1266.3,795.67,0.5184
1228,764,1268,804,0.47528
1226.3,762.33,1266.3,802.33,0.44048
1231.3,767.33,1271.3,807.33,0.46977
1226.3,765.67,1266.3,805.67,0.41237
1224.7,764,1264.7,804,0.41672
1223,762.33,1263,802.33,0.43068
1228,767.33,1268,807.33,0.42801
1226.3,765.67,1266.3,805.67,0.41634
1224.7,764,1264.7,804,0.4319
1223,762.33,1263,802.33,0.41139
1211.3,757.33,1251.3,797.33,0.40962
1226.3,765.67,1266.3,805.67,0.3835
1221.3,760.67,1261.3,800.67,0.41274
1219.7,759,1259.7,799,0.4619
1228,764,1268,804,0.44502
1226.3,762.33,1266.3,802.33,0.46156
1224.7,760.67,1264.7,800.67,0.43729
1223,759,1263,799,0.48672
1228,764,1268,804,0.43328
1226.3,762.33,1266.3,802.33,0.43463
1228,764,1268,804,0.42578
1223,759,1263,799,0.48079
1221.3,760.67,1261.3,800.67,0.40503
1226.3,765.67,1266.3,805.67,0.36321
1221.3,760.67,1261.3,800.67,0.40048
1223,759,1263,799,0.47498
1221.3,760.67,1261.3,800.67,0.39932
1223,759,1263,799,0.47444
1221.3,760.67,1261.3,800.67,0.39272
1223,759,1263,799,0.47131
1221.3,760.67,1261.3,800.67,0.39966
1219.7,759,1259.7,799,0.44697
1221.3,760.67,1261.3,800.67,0.4147
1223,759,1263,799,0.48809
1221.3,760.67,1261.3,800.67,0.4107
1223,759,1263,799,0.49776
1221.3,760.67,1261.3,800.67,0.4071
1223,759,1263,799,0.48743
1221.3,757.33,1261.3,797.33,0.47862
1226.3,762.33,1266.3,802.33,0.40047
1221.3,757.33,1261.3,797.33,0.47999
1223,755.67,1263,795.67,0.52199
1221.3,757.33,1261.3,797.33,0.49874
1223,755.67,1263,795.67,0.51847
1221.3,754,1261.3,794,0.4852
1223,755.67,1263,795.67,0.49895
1221.3,754,1261.3,794,0.47208
1226.3,745.67,1266.3,785.67,0.46216
1228,747.33,1268,787.33,0.49226
1229.7,745.67,1269.7,785.67,0.46596
1231.3,750.67,1271.3,790.67,0.50907
1229.7,745.67,1269.7,785.67,0.46819
1231.3,747.33,1271.3,787.33,0.47216
1229.7,752.33,1269.7,792.33,0.5271
1231.3,747.33,1271.3,787.33,0.48684
1229.7,752.33,1269.7,792.33,0.52831
1231.3,744,1271.3,784,0.44837
1229.7,752.33,1269.7,792.33,0.52186
1238,750.67,1278,790.67,0.43344
1233,749,1273,789,0.48981
1238,750.67,1278,790.67,0.43624
1233,749,1273,789,0.48494
1234.7,750.67,1274.7,790.67,0.46801
1236.3,749,1276.3,789,0.45084
1234.7,744,1274.7,784,0.44099
1236.3,749,1276.3,789,0.45408
1234.7,744,1274.7,784,0.44525
1236.3,749,1276.3,789,0.45147
1234.7,744,1274.7,784,0.44249
1239.7,749,1279.7,789,0.41
1234.7,737.33,1274.7,777.33,0.41909
1229.7,749,1269.7,789,0.45478
1228,754,1268,794,0.43652
1226.3,755.67,1266.3,795.67,0.44142
1228,747.33,1268,787.33,0.44708
1226.3,752.33,1266.3,792.33,0.42879
1228,744,1268,784,0.48214
1226.3,749,1266.3,789,0.4255
1224.7,750.67,1264.7,790.67,0.44521
1226.3,745.67,1266.3,785.67,0.45075
1224.7,750.67,1264.7,790.67,0.44216
1229.7,742.33,1269.7,782.33,0.46476
1224.7,750.67,1264.7,790.67,0.43719
1229.7,742.33,1269.7,782.33,0.48683
1231.3,740.67,1271.3,780.67,0.47471
1226.3,745.67,1266.3,785.67,0.45091
1231.3,740.67,1271.3,780.67,0.47934
1233,739,1273,779,0.48697
1231.3,740.67,1271.3,780.67,0.48051
1233,739,1273,779,0.48431
1234.7,740.67,1274.7,780.67,0.40047
1233,739,1273,779,0.47984
1231.3,740.67,1271.3,780.67,0.4791
1236.3,739,1276.3,779,0.42077
1238,737.33,1278,777.33,0.4431
1236.3,739,1276.3,779,0.42758
1238,737.33,1278,777.33,0.44089
1243,735.67,1283,775.67,0.36374
1241.3,737.33,1281.3,777.33,0.39438
1243,735.67,1283,775.67,0.4035
1244.7,734,1284.7,774,0.39001
1243,735.67,1283,775.67,0.40516
1244.7,734,1284.7,774,0.40931
1243,735.67,1283,775.67,0.42019
1244.7,734,1284.7,774,0.43263
1243,735.67,1283,775.67,0.43641
1244.7,734,1284.7,774,0.45037
1246.3,732.33,1286.3,772.33,0.42672
1244.7,734,1284.7,774,0.45695
1243,735.67,1283,775.67,0.44099
1244.7,734,1284.7,774,0.46416
1243,735.67,1283,775.67,0.44403
1244.7,734,1284.7,774,0.46211
1243,735.67,1283,775.67,0.44988
1244.7,734,1284.7,774,0.45255
1239.7,735.67,1279.7,775.67,0.4607
1241.3,734,1281.3,774,0.4911
1239.7,735.67,1279.7,775.67,0.46998
1241.3,734,1281.3,774,0.49287
1239.7,735.67,1279.7,775.67,0.47701
1241.3,734,1281.3,774,0.47996
1243,735.67,1283,775.67,0.42372
1244.7,734,1284.7,774,0.44951
1243,735.67,1283,775.67,0.41907
1241.3,734,1281.3,774,0.47997
1243,735.67,1283,775.67,0.41085
1241.3,734,1281.3,774,0.47302
1249.7,729,1289.7,769,0.43257
1248,730.67,1288,770.67,0.43248
1249.7,729,1289.7,769,0.48467
1251.3,730.67,1291.3,770.67,0.45545
1253,729,1293,769,0.46146
1248,730.67,1288,770.67,0.47998
1246.3,729,1286.3,769,0.4852
1244.7,730.67,1284.7,770.67,0.48302
1243,729,1283,769,0.48048
1241.3,730.67,1281.3,770.67,0.48322
1233,732.33,1273,772.33,0.50457
1241.3,724,1281.3,764,0.47122
1239.7,725.67,1279.7,765.67,0.4895
1241.3,724,1281.3,764,0.45259
1239.7,725.67,1279.7,765.67,0.49508
1248,720.67,1288,760.67,0.44796
1239.7,725.67,1279.7,765.67,0.52601
1241.3,724,1281.3,764,0.47598
1229.7,732.33,1269.7,772.33,0.52626
1234.7,727.33,1274.7,767.33,0.57228
1229.7,729,1269.7,769,0.52568
1231.3,727.33,1271.3,767.33,0.53382
1229.7,729,1269.7,769,0.52157
1231.3,727.33,1271.3,767.33,0.52143
1229.7,729,1269.7,769,0.51434
1231.3,727.33,1271.3,767.33,0.5179
1229.7,729,1269.7,769,0.5094
1231.3,727.33,1271.3,767.33,0.52853
1233,722.33,1273,762.33,0.46593
1234.7,724,1274.7,764,0.52312
1233,725.67,1273,765.67,0.53274
1231.3,724,1271.3,764,0.49345
1239.7,722.33,1279.7,762.33,0.45611
1228,727.33,1268,767.33,0.5246
1239.7,722.33,1279.7,762.33,0.45397
1238,724,1278,764,0.51103
1236.3,725.67,1276.3,765.67,0.56006
1241.3,724,1281.3,764,0.48671
1236.3,725.67,1276.3,765.67,0.57959
1238,724,1278,764,0.52381
1236.3,725.67,1276.3,765.67,0.55764
1238,724,1278,764,0.52474
1233,725.67,1273,765.67,0.53085
1231.3,724,1271.3,764,0.51883
1233,722.33,1273,762.33,0.5223
1234.7,720.67,1274.7,760.67,0.51813
1233,722.33,1273,762.33,0.51831
1234.7,720.67,1274.7,760.67,0.4995
1233,722.33,1273,762.33,0.51426
1234.7,720.67,1274.7,760.67,0.5056
1236.3,719,1276.3,759,0.49757
1241.3,717.33,1281.3,757.33,0.50216
1236.3,719,1276.3,759,0.49477
1238,717.33,1278,757.33,0.46933
1243,715.67,1283,755.67,0.47361
1244.7,714,1284.7,754,0.44007
1243,715.67,1283,755.67,0.47482
1244.7,714,1284.7,754,0.44747
1253,715.67,1293,755.67,0.44293
1244.7,714,1284.7,754,0.44278
1243,715.67,1283,755.67,0.47272
1244.7,714,1284.7,754,0.44407
1246.3,712.33,1286.3,752.33,0.44643
1244.7,714,1284.7,754,0.44523
1243,715.67,1283,755.67,0.4739
1244.7,714,1284.7,754,0.44256
1246.3,712.33,1286.3,752.33,0.44655
1244.7,714,1284.7,754,0.44578
1243,712.33,1283,752.33,0.45442
1244.7,710.67,1284.7,750.67,0.44336
1233,715.67,1273,755.67,0.49074
1234.7,714,1274.7,754,0.46692
1236.3,712.33,1276.3,752.33,0.45288
1231.3,714,1271.3,754,0.48937
1236.3,712.33,1276.3,752.33,0.45375
1241.3,710.67,1281.3,750.67,0.42729
1253,709,1293,749,0.47482
1261.3,697.33,1301.3,737.33,0.31735
1256.3,712.33,1296.3,752.33,0.46131
1261.3,697.33,1301.3,737.33,0.31726
1246.3,709,1286.3,749,0.4405
1244.7,710.67,1284.7,750.67,0.42889
1256.3,705.67,1296.3,745.67,0.48077
1264.7,697.33,1304.7,737.33,0.33717
1266.3,695.67,1306.3,735.67,0.32602
1261.3,704,1301.3,744,0.41446
1263,705.67,1303,745.67,0.44006
1261.3,704,1301.3,744,0.41047
1263,705.67,1303,745.67,0.44788
1261.3,704,1301.3,744,0.39311
1263,702.33,1303,742.33,0.37306
1261.3,704,1301.3,744,0.39274
1263,702.33,1303,742.33,0.36718
1261.3,700.67,1301.3,740.67,0.34804
1263,699,1303,739,0.32393
1261.3,704,1301.3,744,0.38825
1263,702.33,1303,742.33,0.3649
1261.3,704,1301.3,744,0.38681
1263,705.67,1303,745.67,0.42245
1261.3,707.33,1301.3,747.33,0.47612
1263,705.67,1303,745.67,0.4187
1261.3,707.33,1301.3,747.33,0.47627
1263,709,1303,749,0.47979
1264.7,707.33,1304.7,747.33,0.46552
1263,709,1303,749,0.48189
1261.3,710.67,1301.3,750.67,0.48966
1263,709,1303,749,0.48745
1261.3,710.67,1301.3,750.67,0.49234
1263,709,1303,749,0.48673
1264.7,707.33,1304.7,747.33,0.46667
